<svg width="46" height="46" viewBox="0 0 46 46" fill="none" xmlns="http://www.w3.org/2000/svg">
<rect x="0.5" y="0.5" width="45" height="45" rx="22.5" fill="#409BFF"/>
<rect x="0.5" y="0.5" width="45" height="45" rx="22.5" fill="white" fill-opacity="0.9"/>
<rect x="0.5" y="0.5" width="45" height="45" rx="22.5" stroke="#409BFF"/>
<rect x="0.5" y="0.5" width="45" height="45" rx="22.5" stroke="white" stroke-opacity="0.25"/>
</svg>
