<svg width="66" height="66" viewBox="0 0 66 66" fill="none" xmlns="http://www.w3.org/2000/svg">
<path d="M7.08856 7.0136C-2.34129 16.2807 -2.36999 49.8322 7.0455 59.1135C16.3462 68.2955 49.652 68.2955 58.9599 59.1135C68.3682 49.8322 68.3395 16.2807 58.9168 7.0136C49.3937 -2.33787 16.6045 -2.33787 7.08856 7.0136Z" fill="white"/>
<path d="M9.52076 9.23309C0.980793 17.6281 0.952087 48.0244 9.4777 56.4406C17.91 64.7505 48.087 64.7505 56.5193 56.4406C65.0449 48.0244 65.0234 17.6281 56.4762 9.23309C47.8573 0.753032 18.1476 0.753032 9.52076 9.23309Z" fill="#33B9FE"/>
<path d="M56.5185 54.2658C48.0862 62.5828 17.9093 62.5828 9.47697 54.2658C5.69499 50.5292 3.59229 38.267 3.17606 29.709C2.65936 40.38 4.76205 51.7812 9.47697 56.4396C17.9093 64.7495 48.0862 64.7495 56.5185 56.4396C61.2406 51.7812 63.3362 40.38 62.8195 29.709C62.4032 38.2677 60.3084 50.5292 56.5185 54.2658Z" fill="#1C9CDE"/>
<path d="M6.9668 50.2333C7.74185 51.7861 8.52159 53.6265 9.53346 54.6333C17.9658 62.9503 48.088 62.5069 56.5203 54.1899C59.7712 50.978 61.1989 45.6683 61.9668 38.5C48.0209 54.0697 30.2121 57.243 6.9668 50.2333Z" fill="#27B0F7"/>
<path d="M9.521 9.23309C6.95901 11.7502 5.1649 16.2454 4.13867 21.5278C18.9221 6.34732 48.5608 3.92242 61.1053 18.2946C60.0432 14.4303 58.493 11.2184 56.4765 9.23309C47.8576 0.753032 18.1478 0.753032 9.521 9.23309Z" fill="#59C6FF"/>
<path d="M14.3217 8.92426C11.2746 9.77674 8.80078 11.8573 8.80078 13.5682C8.80078 15.2791 11.2746 15.9706 14.3217 15.1122C17.3748 14.2597 19.8426 12.1792 19.8426 10.4742C19.8426 8.76271 17.3748 8.06582 14.3217 8.92426Z" fill="#9ADCFF"/>
<path d="M23.4731 6.61119C21.7535 6.71849 20.2028 7.54117 19.9977 8.4473C19.7986 9.35343 21.0295 10.0032 22.7551 9.89592C24.4687 9.79458 26.0254 8.9719 26.2245 8.06577C26.4231 7.15427 25.1928 6.50388 23.4731 6.61119Z" fill="#9ADCFF"/>
<path d="M52.0437 50.4181C50.2535 51.2749 48.9612 52.8225 49.1514 53.8782C49.336 54.9339 50.9416 55.0942 52.7262 54.2375C54.5108 53.3808 55.8087 51.8331 55.6185 50.7774C55.4277 49.7217 53.8283 49.5609 52.0437 50.4181Z" fill="#84D3FD"/>
<path d="M24.1588 30.4639L24.1586 30.4638L24.1496 30.4728C23.6516 30.9709 23.3155 31.5915 23.1734 32.2751L23.173 32.277C23.1239 32.5197 23.0997 32.7642 23.0997 33.0029C23.0997 33.2402 23.1237 33.4847 23.173 33.7323L23.1738 33.7357C23.3156 34.4132 23.6501 35.0333 24.1635 35.5459L24.1634 35.5461L24.1725 35.5546L37.1951 47.7054L37.2095 47.7196C37.8997 48.4014 38.8088 48.7731 39.7816 48.7731C41.783 48.7731 43.4217 47.1604 43.4217 45.1723C43.4217 44.2196 43.0544 43.3283 42.3639 42.6347L33.6246 33.0029L42.3778 23.3571C43.0526 22.6782 43.4216 21.7878 43.4216 20.8333C43.4216 18.8452 41.783 17.2325 39.7816 17.2325C38.8113 17.2325 37.9045 17.6019 37.2162 18.2794C37.2162 18.2794 37.2162 18.2794 37.2162 18.2794L37.2026 18.2927L24.1588 30.4639Z" fill="white" stroke="#27B0F6" stroke-width="0.734266"/>
</svg>
