<svg width="68" height="50" viewBox="0 0 68 50" fill="none" xmlns="http://www.w3.org/2000/svg">
<path d="M27.1098 7.6499C28.1203 8.75373 28.6644 10.4639 28.3846 10.4484C27.545 10.4484 26.9077 9.08022 25.8505 8.11631C25.2597 7.55662 24.5445 7.1524 24.871 6.73264C25.1975 6.31287 25.7883 6.20403 27.1098 7.6499Z" fill="#694839"/>
<path d="M52.7931 40.6081C53.8659 40.7014 56.6333 40.6081 56.7887 40.0795C56.9442 39.5509 54.41 37.6698 53.6793 37.3433C52.5444 36.8303 50.772 36.9702 50.3989 37.7009C50.0258 38.4316 49.7615 40.3594 52.7776 40.6081" fill="#321F11"/>
<path d="M25.3682 26.2262C25.2815 26.4844 25.1613 26.73 25.0106 26.9569C24.9699 27.0415 24.9175 27.12 24.8551 27.1901L24.653 27.4233C24.5991 27.4979 24.5365 27.5657 24.4665 27.6254L24.2333 27.8897C20.5642 31.6054 12.4332 32.647 6.52536 29.8175C3.84253 28.5262 1.75624 26.2564 0.695284 23.4744C0.547486 23.0725 0.422921 22.6624 0.322174 22.2462C-0.0592112 20.8977 -0.102716 19.476 0.195543 18.1068C0.493801 16.7375 1.12466 15.4627 2.03234 14.395C2.49971 13.8465 3.06351 13.3881 3.69587 13.0424C3.9236 12.9116 4.163 12.8023 4.41101 12.7159C4.9091 12.519 5.43249 12.3934 5.9657 12.3428C9.51039 11.9697 13.6148 14.3795 15.838 17.6132C19.2738 22.6193 26.2699 23.2567 25.3215 26.2262" fill="#E0F2FB"/>
<path d="M24.2177 27.8919C20.5486 31.6076 12.4176 32.6492 6.50977 29.8197C3.82694 28.5284 1.74064 26.2585 0.679688 23.4766C3.05804 25.0679 5.64177 26.3284 8.35985 27.2233C10.6789 27.9931 13.0881 28.4582 15.5269 28.607C18.4429 28.7681 21.3672 28.5275 24.2177 27.8919Z" fill="#BBDDF6"/>
<path d="M21.1086 27.5332H24.4667C23.7671 27.5332 22.9121 27.6421 22.4767 27.6887C20.1244 28.0282 17.7421 28.1116 15.3718 27.9375C12.0625 27.684 8.81967 26.8745 5.77941 25.5433C3.85035 24.61 2.02625 23.4739 0.338 22.1541C-0.0418517 20.7421 -0.0738551 19.2591 0.244723 17.832C1.4384 18.9438 2.80996 19.8477 4.30243 20.5061C6.89859 21.3986 9.4199 22.4955 11.8427 23.7865C15.7139 26.274 17.766 27.3467 21.1708 27.44" fill="#BBDDF6"/>
<path d="M24.8079 27.1906L24.6058 27.4238L24.4659 27.5793C23.6264 27.5793 21.683 27.2839 20.3148 27.0663C17.2006 26.6511 14.2539 25.4112 11.7796 23.4749C9.52535 21.4694 6.27609 21.4072 3.69531 19.6659C2.40853 19.005 1.3317 17.9982 0.585938 16.7587C0.921057 15.8935 1.40512 15.0937 2.01622 14.3955C2.48359 13.847 3.04739 13.3886 3.67975 13.043C4.86131 13.9136 6.38487 15.4372 7.39542 16.1523C8.79464 17.1629 13.2099 21.656 16.5836 23.5216C19.2421 24.9985 23.3309 26.5221 24.839 27.1751" fill="#BBDDF6"/>
<path d="M25.0097 26.9578C24.2012 26.5691 22.9419 25.9628 21.9003 25.5119C18.8615 24.5113 16.0242 22.9795 13.5205 20.9878C10.4895 18.7451 7.72492 16.1631 5.28065 13.2921C5.09409 13.1677 4.76758 12.9345 4.37891 12.7169C4.87699 12.5199 5.40039 12.3943 5.9336 12.3438C7.48828 12.6858 9.13627 13.09 9.69596 13.2921C11.181 13.8012 12.5423 14.6169 13.6915 15.6863C14.9975 16.8368 16.6454 19.402 18.0136 20.4747C19.3817 21.5475 23.7037 23.5841 24.5432 24.7968C24.8291 25.2532 25.0786 25.7315 25.2895 26.2271L25.0097 26.9578Z" fill="#BBDDF6"/>
<path d="M20.1445 29.7267C18.5898 28.9649 17.3927 29.6334 17.5326 30.0376C17.6725 30.4419 17.8746 30.504 19.3671 31.3747C20.2066 31.8722 21.6059 32.5096 21.9634 31.9966C22.321 31.4835 22.2588 30.7528 20.1445 29.7267Z" fill="#321F11"/>
<path d="M26.4881 46.4851C25.7729 48.0398 26.4881 49.1437 26.8301 49.0037C27.1722 48.8638 27.281 48.6617 28.0894 47.2003C28.5558 46.3763 29.1466 45.0237 28.6336 44.6817C28.1205 44.3397 27.4209 44.4174 26.4881 46.4851Z" fill="#321F11"/>
<path d="M33.7341 5.87616C33.4543 7.33756 33.8119 9.12545 34.1073 8.98553C34.8069 8.50358 34.667 7.04217 35.0556 5.6585C35.2733 4.88116 35.662 4.10381 35.1645 3.97944C34.667 3.85506 34.1073 3.97943 33.7341 5.93833" fill="#694839"/>
<path d="M21.1715 38.7273C21.6224 40.6862 24.8095 46.1743 28.3852 47.729C31.9881 49.2853 35.9807 49.703 39.8278 48.9261C44.2897 48.0555 50.835 46.423 53.82 38.6962C56.805 30.9694 51.4102 24.7973 50.5862 23.8334C48.3008 21.0816 47.1503 20.9883 47.1348 18.6408C47.1348 10.8673 37.6979 6.85621 31.2925 8.44199C20.4097 11.1316 20.3009 18.8584 20.0055 24.8284C19.8471 27.0799 19.8471 29.3398 20.0055 31.5913C20.253 33.995 20.6634 36.3792 21.2337 38.7273" fill="#FFD450"/>
<path d="M19.9429 31.5913C23.674 31.4747 27.3957 31.1477 31.09 30.6119C37.7736 29.1292 44.1981 26.6558 50.1505 23.2738C47.9739 20.8951 47.4142 21.0661 47.0411 19.4492C45.0666 20.2577 43.341 20.5531 39.0656 21.7502C32.7885 23.3903 26.3699 24.4314 19.8962 24.8596C19.6934 27.1093 19.6934 29.3727 19.8962 31.6224" fill="#856251"/>
<path d="M20.7031 36.5502C20.986 38.4742 21.6578 40.3203 22.6776 41.9761C26.9885 42.4001 31.3395 42.1324 35.566 41.1832C38.6754 40.4836 48.0034 37.9028 54.5176 32.8345C54.2236 30.5403 53.4673 28.3295 52.2944 26.3359C49.2611 28.5867 46.0175 30.5391 42.6087 32.166C38.4009 34.2147 33.9011 35.5992 29.2695 36.2704C26.4453 36.803 23.556 36.8974 20.7031 36.5502Z" fill="#856251"/>
<path d="M28.8047 47.8527C32.4046 49.2598 36.3326 49.6051 40.1228 48.8477C44.6158 48.0237 52.6691 45.474 54.3792 36.4102C50.7149 39.5004 46.5856 41.9927 42.1439 43.7949C37.9038 45.7508 33.4156 47.116 28.8047 47.8527Z" fill="#856251"/>
<path d="M21.6999 21.2207C21.772 21.5861 21.95 21.9223 22.2119 22.1872C22.4738 22.4521 22.8079 22.634 23.1726 22.7103C23.5372 22.7865 23.9161 22.7538 24.2622 22.616C24.6083 22.4782 24.9062 22.2416 25.1187 21.9356C25.3312 21.6297 25.4489 21.2679 25.4571 20.8955C25.4653 20.5231 25.3636 20.1565 25.1648 19.8415C24.966 19.5265 24.6788 19.2769 24.3391 19.1241C23.9994 18.9712 23.6222 18.9218 23.2546 18.9819C23.0037 19.023 22.7635 19.1141 22.5485 19.2498C22.3335 19.3855 22.1479 19.563 22.0029 19.7719C21.8578 19.9807 21.7563 20.2166 21.7042 20.4655C21.6522 20.7144 21.6507 20.9712 21.6999 21.2207Z" fill="#FCBE17"/>
<path d="M39.7347 18.1121C39.8316 18.6069 40.121 19.043 40.5394 19.3243C40.9578 19.6057 41.4709 19.7093 41.9657 19.6124C42.4605 19.5155 42.8965 19.226 43.1779 18.8076C43.4592 18.3892 43.5629 17.8762 43.466 17.3814C43.418 17.1364 43.3222 16.9033 43.1841 16.6953C43.046 16.4873 42.8683 16.3085 42.6612 16.1692C42.2428 15.8879 41.7298 15.7843 41.235 15.8811C40.7402 15.978 40.3041 16.2675 40.0228 16.6859C39.7414 17.1043 39.6378 17.6173 39.7347 18.1121Z" fill="#FCBE17"/>
<path d="M32.3349 20.3045C32.7011 20.3003 33.0612 20.2094 33.3855 20.0392C33.7098 19.8689 33.9892 19.6241 34.2006 19.325C34.2201 19.2981 34.2336 19.2674 34.2403 19.2349C34.2469 19.2023 34.2465 19.1688 34.2392 19.1364C34.2318 19.104 34.2176 19.0736 34.1976 19.0471C34.1775 19.0206 34.152 18.9988 34.1228 18.983C34.0943 18.9664 34.0627 18.9556 34.03 18.9513C33.9973 18.947 33.9641 18.9493 33.9322 18.958C33.9004 18.9667 33.8706 18.9816 33.8446 19.0019C33.8186 19.0222 33.7969 19.0475 33.7807 19.0763C33.5942 19.3082 33.3572 19.4945 33.0878 19.6211C32.8184 19.7477 32.5237 19.8113 32.226 19.807C31.9254 19.8488 31.6191 19.8184 31.3326 19.7183C31.046 19.6183 30.7874 19.4515 30.578 19.2317C30.5293 19.1869 30.4655 19.1621 30.3993 19.1621C30.333 19.1621 30.2692 19.1869 30.2205 19.2317C30.1767 19.2779 30.1523 19.3391 30.1523 19.4027C30.1523 19.4664 30.1767 19.5276 30.2205 19.5738C30.4764 19.8654 30.8007 20.0891 31.1642 20.2247C31.5278 20.3604 31.9193 20.4038 32.3038 20.3511H32.4593" fill="#856251"/>
<path d="M43.2617 44.7435C44.1945 46.2982 43.6349 47.4487 43.2617 47.3398C42.8886 47.231 42.7798 47.0445 41.707 45.6763C41.1318 44.8834 40.37 43.5775 40.852 43.1733C41.3339 42.7691 42.049 42.7535 43.2462 44.728" fill="#321F11"/>
<path d="M40.355 28.1243C41.5521 26.7873 41.2256 25.5124 40.7903 25.5435C40.355 25.5746 40.2461 25.7456 38.9868 26.9272C38.2717 27.5957 37.2766 28.7462 37.6653 29.2437C38.054 29.7412 38.7847 29.8811 40.355 28.1243Z" fill="#321F11"/>
<path d="M43.2784 22.6052C43.4669 22.8321 43.6867 23.0311 43.9313 23.196L44.1956 23.367L44.491 23.538L44.7709 23.6624L45.1285 23.8334C50.4455 26.1344 59.2295 23.8334 64.1423 18.4698C66.3678 16.0316 67.5702 12.8307 67.5004 9.53031C67.4905 9.05648 67.449 8.58383 67.3761 8.11554C67.2116 6.57036 66.6688 5.08955 65.7956 3.80419C64.9224 2.51882 63.7458 1.46854 62.37 0.746313C61.6534 0.381995 60.881 0.140279 60.0846 0.0311701C59.7946 0.0156516 59.504 0.0156516 59.2139 0.0311701C58.5962 0.0368639 57.9828 0.136446 57.3949 0.326541C53.586 1.41482 50.3678 5.5814 49.4349 9.84125C47.9735 16.4176 41.0396 19.9778 43.2162 22.6363" fill="#E0F2FB"/>
<path d="M45.1445 23.8344C50.4616 26.1353 59.2456 23.8344 64.1584 18.4707C66.3839 16.0325 67.5863 12.8317 67.5165 9.53125C65.7312 12.1555 63.5973 14.5248 61.1734 16.574C59.1084 18.3355 56.8185 19.8151 54.3639 20.9737C51.4377 22.3487 48.3351 23.3114 45.1445 23.8344Z" fill="#BBDDF6"/>
<path d="M48.1292 22.1689L44.6934 23.7236C45.4396 23.4904 46.3879 23.1639 46.8077 23.0551C49.3709 22.4333 51.8578 21.5314 54.2236 20.3655C57.5203 18.7366 60.5166 16.5603 63.0853 13.929C64.6873 12.1645 66.0995 10.2364 67.2985 8.1767C67.0963 6.56851 66.5098 5.03269 65.5883 3.69922C63.913 4.69277 62.424 5.97126 61.1886 7.4771C59.6339 10.089 57.9393 12.0634 56.1358 14.6287C53.1819 18.8108 51.4718 20.7541 48.0981 22.2311" fill="#BBDDF6"/>
<path d="M44.2109 23.3672L44.5063 23.5382L44.7239 23.6315C45.7289 23.1463 46.6648 22.5294 47.5068 21.797C49.4346 20.0713 54.2075 16.6509 56.3064 13.7903C58.0389 11.5218 59.598 9.12602 60.9705 6.6232C62.0576 5.10487 63.3499 3.74455 64.8105 2.58103C64.1075 1.83475 63.282 1.21427 62.3697 0.74648C61.6599 0.382102 60.8916 0.145302 60.0998 0.046875C59.2292 1.43055 58.2964 3.6382 57.5501 4.80422C56.5396 6.35891 53.8655 12.8575 51.1759 16.2001C49.0615 18.812 45.4702 22.0768 44.1953 23.3672" fill="#BBDDF6"/>
<path d="M43.2773 22.6052C43.2787 22.011 43.3307 21.4181 43.4328 20.8328C43.8059 19.2781 47.5527 15.0338 48.3612 13.6657C49.3251 12.0022 49.9159 8.67517 50.8176 6.94946C51.551 5.37165 52.6108 3.9674 53.927 2.82952C54.409 2.39421 55.917 1.27485 57.3939 0.295395C57.9818 0.1053 58.5952 0.00569387 59.213 0C58.9621 0.30992 58.7335 0.637232 58.5289 0.979462C56.4456 4.61743 55.7926 8.30204 53.2429 12.2976C51.3042 15.2559 49.041 17.9883 46.4956 20.4441C45.6405 21.3148 44.5988 22.4653 43.9303 23.196L43.2773 22.6052Z" fill="#BBDDF6"/>
<path d="M20.9689 14.6754C20.826 15.6116 20.9639 16.5691 21.3652 17.4269C21.7665 18.2847 22.4132 19.0042 23.2234 19.4945C24.0336 19.9848 24.971 20.2239 25.9171 20.1814C26.8632 20.139 27.7754 19.8169 28.5385 19.2561C29.3015 18.6952 29.8812 17.9206 30.204 17.0304C30.5269 16.1401 30.5785 15.174 30.3524 14.2544C30.1263 13.3348 29.6325 12.5029 28.9336 11.8638C28.2347 11.2248 27.362 10.8074 26.4258 10.6643C25.8041 10.5693 25.1698 10.5977 24.5591 10.7479C23.9484 10.8981 23.3732 11.1671 22.8665 11.5395C22.3598 11.912 21.9314 12.3806 21.6058 12.9187C21.2802 13.4568 21.0638 14.0537 20.9689 14.6754Z" fill="white"/>
<path d="M24.9791 20.1333C24.043 19.9902 23.1703 19.5728 22.4714 18.9338C21.7725 18.2947 21.2787 17.4628 21.0526 16.5432C20.8265 15.6236 20.8781 14.6575 21.2009 13.7672C21.5238 12.8769 22.1034 12.1024 22.8665 11.5415C23.6296 10.9806 24.5418 10.6586 25.4879 10.6161C26.4339 10.5737 27.3713 10.8127 28.1815 11.303C28.9918 11.7933 29.6384 12.5129 30.0397 13.3707C30.441 14.2285 30.579 15.186 30.4361 16.1222C30.3412 16.7439 30.1248 17.3408 29.7992 17.8789C29.4736 18.417 29.0452 18.8856 28.5385 19.2581C28.0317 19.6305 27.4566 19.8995 26.8459 20.0497C26.2352 20.1999 25.6008 20.2283 24.9791 20.1333ZM26.4095 10.8051C25.4969 10.6615 24.5622 10.792 23.724 11.1803C22.8857 11.5685 22.1816 12.1969 21.701 12.9859C21.2203 13.7748 20.9848 14.6887 21.0243 15.6117C21.0638 16.5346 21.3764 17.4251 21.9226 18.1701C22.4688 18.9152 23.224 19.4812 24.0923 19.7965C24.9607 20.1118 25.9031 20.1621 26.8 19.9411C27.697 19.72 28.5082 19.2376 29.1306 18.5549C29.753 17.8723 30.1587 17.0202 30.2962 16.1066C30.4795 14.8888 30.1737 13.648 29.4455 12.6548C28.7174 11.6616 27.626 10.9967 26.4095 10.8051Z" fill="#EBEFF1"/>
<path d="M23.5961 15.0798C23.5333 15.4963 23.5953 15.922 23.7743 16.3033C23.9534 16.6845 24.2415 17.0041 24.6022 17.2216C24.9629 17.4392 25.38 17.5449 25.8007 17.5254C26.2215 17.5059 26.627 17.3621 26.966 17.1121C27.3051 16.8622 27.5624 16.5174 27.7054 16.1212C27.8485 15.7251 27.8709 15.2954 27.7698 14.8865C27.6687 14.4776 27.4486 14.1079 27.1374 13.8241C26.8262 13.5402 26.4379 13.355 26.0214 13.2919C25.7445 13.2478 25.4616 13.2593 25.1892 13.3256C24.9167 13.3919 24.6602 13.5117 24.4345 13.6781C24.2088 13.8444 24.0184 14.0541 23.8745 14.2947C23.7306 14.5353 23.6359 14.8022 23.5961 15.0798Z" fill="#262626"/>
<path d="M24.4991 15.0188C24.5342 14.9967 24.5646 14.9678 24.5883 14.9338C24.6121 14.8998 24.6288 14.8614 24.6375 14.8208C24.6462 14.7802 24.6467 14.7384 24.639 14.6976C24.6312 14.6568 24.6153 14.6181 24.5924 14.5835C24.4991 14.4747 24.297 14.5835 24.1571 14.5835C24.0171 14.5835 23.955 14.91 24.0483 15.0188C24.109 15.0768 24.1897 15.1091 24.2737 15.1091C24.3576 15.1091 24.4384 15.0768 24.4991 15.0188Z" fill="white"/>
<path d="M25.1036 14.1316C25.2268 14.0491 25.3133 13.9221 25.3452 13.7773C25.3771 13.6324 25.3518 13.4809 25.2746 13.3542C25.1035 13.1521 24.7615 13.1988 24.4817 13.432C24.3585 13.5145 24.2719 13.6415 24.24 13.7863C24.2081 13.9312 24.2334 14.0827 24.3106 14.2093C24.4287 14.2976 24.5755 14.3386 24.7222 14.3242C24.8689 14.3099 25.0049 14.2411 25.1036 14.1316Z" fill="white"/>
<path d="M33.1115 12.3746C32.9686 13.3108 33.1065 14.2683 33.5078 15.1261C33.9091 15.9839 34.5558 16.7034 35.366 17.1937C36.1762 17.684 37.1137 17.9231 38.0597 17.8806C39.0058 17.8382 39.918 17.5162 40.6811 16.9553C41.4442 16.3944 42.0238 15.6199 42.3467 14.7296C42.6695 13.8393 42.7212 12.8733 42.495 11.9536C42.2689 11.034 41.7751 10.2021 41.0762 9.56305C40.3773 8.92403 39.5046 8.5066 38.5684 8.36355C37.9467 8.26855 37.3124 8.29693 36.7017 8.4471C36.091 8.59727 35.5158 8.86627 35.0091 9.23874C34.5023 9.61122 34.074 10.0799 33.7484 10.6179C33.4228 11.156 33.2063 11.7529 33.1115 12.3746Z" fill="white"/>
<path d="M37.1218 17.8325C36.1856 17.6894 35.3129 17.272 34.614 16.633C33.915 15.994 33.4213 15.162 33.1952 14.2424C32.969 13.3228 33.0206 12.3567 33.3435 11.4664C33.6664 10.5762 34.246 9.80159 35.0091 9.24071C35.7721 8.67983 36.6844 8.35781 37.6304 8.31536C38.5765 8.27291 39.5139 8.51195 40.3241 9.00225C41.1343 9.49255 41.781 10.2121 42.1823 11.0699C42.5836 11.9277 42.7215 12.8852 42.5787 13.8214C42.3832 15.0751 41.6997 16.2006 40.6773 16.9521C39.6549 17.7036 38.3767 18.0201 37.1218 17.8325ZM38.5521 8.50436C37.6395 8.36068 36.7048 8.49124 35.8666 8.87949C35.0283 9.26773 34.3242 9.89615 33.8435 10.6851C33.3629 11.474 33.1274 12.3879 33.1669 13.3109C33.2063 14.2338 33.519 15.1243 34.0652 15.8693C34.6114 16.6144 35.3666 17.1804 36.2349 17.4957C37.1033 17.811 38.0456 17.8613 38.9426 17.6402C39.8396 17.4192 40.6507 16.9368 41.2732 16.2541C41.8956 15.5715 42.3013 14.7194 42.4388 13.8059C42.6221 12.5881 42.3163 11.3472 41.5881 10.354C40.86 9.3608 39.7686 8.69589 38.5521 8.50436Z" fill="#EBEFF1"/>
<path d="M35.6918 12.779C35.629 13.1955 35.691 13.6213 35.87 14.0025C36.0491 14.3837 36.3372 14.7033 36.6979 14.9209C37.0586 15.1384 37.4757 15.2441 37.8965 15.2246C38.3172 15.2051 38.7227 15.0613 39.0618 14.8114C39.4008 14.5615 39.6581 14.2166 39.8012 13.8205C39.9443 13.4243 39.9667 12.9946 39.8656 12.5857C39.7645 12.1769 39.5444 11.8071 39.2332 11.5233C38.922 11.2395 38.5336 11.0543 38.1172 10.9911C37.8403 10.947 37.5573 10.9585 37.2849 11.0248C37.0124 11.0911 36.7559 11.2109 36.5302 11.3773C36.3045 11.5437 36.1141 11.7533 35.9702 11.9939C35.8263 12.2346 35.7317 12.5015 35.6918 12.779Z" fill="#262626"/>
<path d="M36.6392 12.7175C36.6743 12.6954 36.7047 12.6665 36.7285 12.6325C36.7522 12.5985 36.7689 12.5601 36.7776 12.5195C36.7863 12.479 36.7868 12.4371 36.7791 12.3963C36.7713 12.3556 36.7555 12.3168 36.7326 12.2822C36.6744 12.2253 36.5963 12.1934 36.5149 12.1934C36.4335 12.1934 36.3554 12.2253 36.2973 12.2822C36.1419 12.4221 36.0952 12.6087 36.1885 12.7175C36.2492 12.7755 36.3299 12.8079 36.4139 12.8079C36.4978 12.8079 36.5785 12.7755 36.6392 12.7175Z" fill="white"/>
<path d="M37.2481 11.8316C37.5124 11.5829 37.5901 11.2409 37.4191 11.0543C37.248 10.8677 36.9061 10.8988 36.6262 11.0543C36.503 11.1368 36.4164 11.2638 36.3845 11.4086C36.3527 11.5535 36.378 11.705 36.4552 11.8316C36.5638 11.93 36.7051 11.9844 36.8516 11.9844C36.9981 11.9844 37.1394 11.93 37.2481 11.8316Z" fill="white"/>
</svg>
