<svg width="345" height="70" viewBox="0 0 345 70" fill="none" xmlns="http://www.w3.org/2000/svg">
<g filter="url(#filter0_d)">
<rect x="5" y="1" width="335" height="60" rx="30" fill="white"/>
</g>
<rect x="10.5" y="4.92871" width="324" height="52.1429" rx="26.0714" fill="#2F7FC8" stroke="#296EAD"/>
<path d="M303.983 4.42871H41.9476C29.6479 4.88704 17.883 9.47038 12.0006 22.762C11.3999 25.422 11.0991 27.9373 11.021 30.278C10.5989 42.9257 23.0069 48.4287 35.6617 48.4287H310.508C322.309 48.4287 335 43.7291 335 31.9287C333.93 12.2204 314.679 4.88704 303.983 4.42871Z" fill="#5692C8"/>
<path d="M86.4448 24.532C86.8608 24.532 87.0688 24.7613 87.0688 25.22C87.0688 25.3373 87.0528 25.4547 87.0208 25.572C86.9994 25.6893 86.9674 25.796 86.9248 25.892H84.9088V34.5C84.6954 34.692 84.3701 34.788 83.9328 34.788C83.8581 34.788 83.7781 34.7773 83.6928 34.756C83.1061 34.276 82.4821 33.8067 81.8208 33.348C81.1594 32.8893 80.5354 32.4893 79.9488 32.148C79.5754 32.4253 79.1488 32.644 78.6688 32.804C78.1888 32.9533 77.6554 33.028 77.0688 33.028C76.4608 33.028 75.8901 32.948 75.3568 32.788C74.8341 32.6173 74.3541 32.3773 73.9168 32.068C73.4901 31.748 73.1168 31.3693 72.7968 30.932C72.4874 30.4947 72.2474 30.004 72.0768 29.46C72.0021 29.2467 71.9434 29.0333 71.9008 28.82C71.8581 28.6067 71.8368 28.3933 71.8368 28.18C71.8368 27.86 71.9221 27.6147 72.0928 27.444C72.2741 27.2627 72.5034 27.172 72.7808 27.172C72.9408 27.172 73.0741 27.188 73.1808 27.22C73.2874 27.2413 73.3728 27.268 73.4368 27.3L73.5008 27.764C73.5754 28.2867 73.7034 28.7827 73.8848 29.252C74.0768 29.7107 74.3168 30.1107 74.6048 30.452C74.9034 30.7933 75.2554 31.0653 75.6608 31.268C76.0768 31.4707 76.5461 31.572 77.0688 31.572C77.4528 31.572 77.8048 31.5133 78.1248 31.396C78.4448 31.268 78.7221 31.092 78.9568 30.868C79.1914 30.644 79.3728 30.372 79.5008 30.052C79.6394 29.7213 79.7088 29.348 79.7088 28.932C79.7088 28.3667 79.5861 27.9293 79.3408 27.62C79.1061 27.3107 78.8074 27.156 78.4448 27.156C78.1141 27.156 77.8421 27.2787 77.6288 27.524C77.4154 27.7693 77.3088 28.0787 77.3088 28.452C77.3088 28.6227 77.3248 28.7773 77.3568 28.916C77.3994 29.044 77.4474 29.1667 77.5008 29.284C77.4261 29.412 77.3141 29.5187 77.1648 29.604C77.0154 29.6787 76.8501 29.716 76.6688 29.716C76.3914 29.716 76.1354 29.604 75.9008 29.38C75.6661 29.1453 75.5488 28.7613 75.5488 28.228C75.5488 27.9507 75.5914 27.684 75.6768 27.428C75.7728 27.1613 75.9114 26.9267 76.0928 26.724C76.2848 26.5107 76.5141 26.3347 76.7808 26.196C77.0581 26.0467 77.3781 25.9453 77.7408 25.892H71.4527C71.0367 25.892 70.8287 25.6573 70.8287 25.188C70.8287 25.0707 70.8447 24.9533 70.8767 24.836C70.8981 24.7187 70.9301 24.6173 70.9727 24.532H86.4448ZM81.4528 28.996C81.4528 29.732 81.2874 30.3987 80.9568 30.996C81.1488 31.1133 81.3514 31.2467 81.5648 31.396C81.7888 31.5453 82.0074 31.6947 82.2208 31.844C82.4341 31.9933 82.6314 32.1373 82.8128 32.276C83.0048 32.4147 83.1701 32.5373 83.3088 32.644C83.2874 32.5053 83.2714 32.3347 83.2608 32.132C83.2501 31.9187 83.2341 31.7053 83.2128 31.492C83.2021 31.2787 83.1914 31.076 83.1808 30.884C83.1808 30.6813 83.1808 30.516 83.1808 30.388V25.892H79.0688C79.3568 25.9347 79.6394 26.0307 79.9167 26.18C80.2048 26.3293 80.4608 26.532 80.6848 26.788C80.9194 27.044 81.1061 27.3587 81.2448 27.732C81.3834 28.0947 81.4528 28.516 81.4528 28.996ZM89.5571 25.892C89.4291 26.0627 89.3171 26.2867 89.2211 26.564C89.1358 26.8307 89.0931 27.1667 89.0931 27.572C89.0931 27.9987 89.1411 28.3987 89.2371 28.772C89.3438 29.1453 89.4558 29.5187 89.5731 29.892C89.7011 30.2653 89.8131 30.6493 89.9091 31.044C90.0158 31.4387 90.0691 31.8653 90.0691 32.324C90.0691 32.708 90.0211 33.0493 89.9251 33.348C89.8291 33.6467 89.6958 33.9027 89.5251 34.116C89.3545 34.3187 89.1571 34.4733 88.9331 34.58C88.7198 34.6867 88.4851 34.74 88.2291 34.74C87.8771 34.74 87.6105 34.6547 87.4291 34.484C87.2478 34.3027 87.1571 34.0733 87.1571 33.796C87.1571 33.668 87.1731 33.5453 87.2051 33.428C87.5251 33.364 87.7918 33.22 88.0051 32.996C88.2185 32.772 88.3251 32.4627 88.3251 32.068C88.3251 31.748 88.2771 31.428 88.1811 31.108C88.0851 30.7773 87.9731 30.4413 87.8451 30.1C87.7278 29.7587 87.6211 29.396 87.5251 29.012C87.4291 28.628 87.3811 28.212 87.3811 27.764C87.3811 26.9747 87.5251 26.3507 87.8131 25.892H86.3891C85.9731 25.892 85.7651 25.6573 85.7651 25.188C85.7651 25.0707 85.7811 24.9533 85.8131 24.836C85.8345 24.7187 85.8665 24.6173 85.9091 24.532H90.9011C91.3171 24.532 91.5251 24.7613 91.5251 25.22C91.5251 25.3373 91.5091 25.4547 91.4771 25.572C91.4558 25.6893 91.4238 25.796 91.3811 25.892H89.5571ZM90.5356 25.892C90.1196 25.892 89.9116 25.6573 89.9116 25.188C89.9116 25.0707 89.9276 24.9533 89.9596 24.836C89.981 24.7187 90.013 24.6173 90.0556 24.532H91.8316C92.1623 24.532 92.4503 24.596 92.6956 24.724C92.9516 24.852 93.1383 25.0387 93.2556 25.284C93.341 25.0173 93.485 24.8253 93.6876 24.708C93.901 24.5907 94.141 24.532 94.4076 24.532H95.3676C95.5596 24.532 95.709 24.5853 95.8156 24.692C95.933 24.7987 95.9916 24.9747 95.9916 25.22C95.9916 25.3373 95.9756 25.4547 95.9436 25.572C95.9223 25.6893 95.8903 25.796 95.8476 25.892H94.5836C94.349 25.892 94.1623 25.9507 94.0236 26.068C93.885 26.1747 93.8156 26.3773 93.8156 26.676V34.756C93.7516 34.7773 93.6556 34.7987 93.5276 34.82C93.3996 34.8413 93.2556 34.852 93.0956 34.852C92.797 34.852 92.557 34.7987 92.3756 34.692C92.1943 34.5853 92.1036 34.3667 92.1036 34.036V26.436C92.1036 26.0733 91.933 25.892 91.5916 25.892H90.5356ZM102.975 25.892V26.772C103.561 26.7933 104.105 26.8787 104.607 27.028C105.108 27.1667 105.545 27.3693 105.919 27.636C106.292 27.892 106.585 28.2067 106.799 28.58C107.012 28.9427 107.119 29.364 107.119 29.844C107.119 30.2387 107.055 30.5853 106.927 30.884C106.809 31.1827 106.649 31.4333 106.447 31.636C106.244 31.828 106.015 31.972 105.759 32.068C105.513 32.164 105.263 32.212 105.007 32.212C104.665 32.212 104.404 32.1267 104.223 31.956C104.052 31.7853 103.967 31.5613 103.967 31.284C103.967 31.06 104.004 30.884 104.079 30.756H104.335C104.633 30.756 104.873 30.6707 105.055 30.5C105.247 30.3293 105.343 30.0893 105.343 29.78C105.343 29.3427 105.135 28.9907 104.719 28.724C104.313 28.4573 103.732 28.292 102.975 28.228V34.5C102.783 34.692 102.463 34.788 102.015 34.788C101.961 34.788 101.913 34.7827 101.871 34.772C101.839 34.772 101.801 34.7667 101.759 34.756C101.268 34.3613 100.793 33.9987 100.335 33.668C99.876 33.3267 99.412 33.012 98.9426 32.724C98.484 32.4253 98.0146 32.1427 97.5346 31.876C97.0546 31.5987 96.548 31.3213 96.0146 31.044C95.9186 30.884 95.844 30.6867 95.7906 30.452C95.7373 30.2067 95.7106 29.9613 95.7106 29.716C95.7106 29.6627 95.7106 29.6093 95.7106 29.556C95.7106 29.492 95.716 29.4333 95.7266 29.38C96.1106 29.1027 96.5266 28.836 96.9746 28.58C97.4333 28.3133 97.9026 28.068 98.3826 27.844C98.8733 27.6093 99.364 27.4013 99.8546 27.22C100.345 27.028 100.82 26.8733 101.279 26.756V25.892H95.3426C95.1506 25.892 95.0013 25.8387 94.8946 25.732C94.7773 25.6147 94.7186 25.4333 94.7186 25.188C94.7186 25.0707 94.7346 24.9533 94.7666 24.836C94.7986 24.7187 94.8306 24.6173 94.8626 24.532H107.791C107.983 24.532 108.132 24.5853 108.239 24.692C108.356 24.7987 108.415 24.9747 108.415 25.22C108.415 25.3373 108.399 25.4547 108.367 25.572C108.345 25.6893 108.313 25.796 108.271 25.892H102.975ZM101.263 28.356C100.612 28.5373 99.956 28.7827 99.2946 29.092C98.644 29.4013 98.0626 29.7267 97.5506 30.068C98.308 30.4947 99.028 30.9427 99.7106 31.412C100.393 31.8707 100.948 32.2707 101.375 32.612C101.364 32.4627 101.348 32.2867 101.327 32.084C101.316 31.8813 101.305 31.6787 101.295 31.476C101.284 31.2627 101.273 31.06 101.263 30.868C101.263 30.6653 101.263 30.4947 101.263 30.356V28.356ZM107.301 25.892C106.885 25.892 106.677 25.6573 106.677 25.188C106.677 25.0707 106.693 24.9533 106.725 24.836C106.747 24.7187 106.779 24.6173 106.821 24.532H108.597C108.928 24.532 109.216 24.596 109.461 24.724C109.717 24.852 109.904 25.0387 110.021 25.284C110.107 25.0173 110.251 24.8253 110.453 24.708C110.667 24.5907 110.907 24.532 111.173 24.532H112.133C112.325 24.532 112.475 24.5853 112.581 24.692C112.699 24.7987 112.757 24.9747 112.757 25.22C112.757 25.3373 112.741 25.4547 112.709 25.572C112.688 25.6893 112.656 25.796 112.613 25.892H111.349C111.115 25.892 110.928 25.9507 110.789 26.068C110.651 26.1747 110.581 26.3773 110.581 26.676V34.756C110.517 34.7773 110.421 34.7987 110.293 34.82C110.165 34.8413 110.021 34.852 109.861 34.852C109.563 34.852 109.323 34.7987 109.141 34.692C108.96 34.5853 108.869 34.3667 108.869 34.036V26.436C108.869 26.0733 108.699 25.892 108.357 25.892H107.301ZM118.108 25.892V28.708C118.375 28.58 118.706 28.404 119.1 28.18C119.506 27.956 119.895 27.732 120.268 27.508C120.471 27.6253 120.684 27.7907 120.908 28.004C121.143 28.2067 121.356 28.452 121.548 28.74C121.74 29.0173 121.895 29.3373 122.012 29.7C122.14 30.0627 122.204 30.4573 122.204 30.884C122.204 31.4493 122.092 31.956 121.868 32.404C121.644 32.8413 121.34 33.2147 120.956 33.524C120.572 33.8227 120.124 34.052 119.612 34.212C119.1 34.372 118.556 34.452 117.98 34.452C117.383 34.452 116.807 34.3613 116.252 34.18C115.708 33.9987 115.202 33.7213 114.732 33.348C114.274 32.964 113.874 32.4787 113.532 31.892C113.191 31.2947 112.935 30.5853 112.764 29.764C112.647 29.3267 112.588 28.9213 112.588 28.548C112.588 28.1533 112.674 27.844 112.844 27.62C113.015 27.396 113.282 27.284 113.644 27.284C113.794 27.284 113.922 27.3053 114.028 27.348C114.135 27.38 114.22 27.4227 114.284 27.476L114.316 28.052C114.37 29.044 114.519 29.86 114.764 30.5C115.02 31.1293 115.324 31.6253 115.676 31.988C116.028 32.3507 116.412 32.6013 116.828 32.74C117.244 32.8787 117.644 32.948 118.028 32.948C118.359 32.948 118.668 32.9 118.956 32.804C119.244 32.708 119.495 32.5747 119.708 32.404C119.932 32.2227 120.108 32.004 120.236 31.748C120.364 31.492 120.428 31.204 120.428 30.884C120.428 30.532 120.364 30.2173 120.236 29.94C120.119 29.652 119.986 29.4333 119.836 29.284C119.463 29.4973 119.058 29.716 118.62 29.94C118.183 30.164 117.794 30.3347 117.452 30.452C117.271 30.3987 117.074 30.292 116.86 30.132C116.647 29.9613 116.498 29.7853 116.412 29.604V25.892H112.14C111.724 25.892 111.516 25.6573 111.516 25.188C111.516 25.0707 111.532 24.9533 111.564 24.836C111.586 24.7187 111.618 24.6173 111.66 24.532H120.028C120.082 24.4467 120.119 24.3667 120.14 24.292C120.162 24.2067 120.172 24.1053 120.172 23.988C120.172 23.732 120.071 23.524 119.868 23.364C119.676 23.1933 119.351 23.108 118.892 23.108C118.583 23.108 118.3 23.1133 118.044 23.124C117.788 23.124 117.527 23.1293 117.26 23.14C116.994 23.14 116.711 23.1453 116.412 23.156C116.124 23.156 115.794 23.156 115.42 23.156C114.546 23.156 113.868 22.9693 113.388 22.596C112.908 22.212 112.668 21.716 112.668 21.108C112.668 20.7133 112.759 20.4093 112.94 20.196C113.122 19.972 113.367 19.86 113.676 19.86C113.858 19.86 114.007 19.8867 114.124 19.94C114.242 19.9933 114.338 20.0467 114.412 20.1C114.402 20.1747 114.391 20.2547 114.38 20.34C114.38 20.4147 114.38 20.5053 114.38 20.612C114.38 21.4013 114.855 21.796 115.804 21.796C116.018 21.796 116.274 21.796 116.572 21.796C116.871 21.7853 117.18 21.7747 117.5 21.764C117.82 21.7533 118.135 21.748 118.444 21.748C118.754 21.7373 119.02 21.732 119.244 21.732C120.087 21.732 120.722 21.908 121.148 22.26C121.575 22.6013 121.788 23.076 121.788 23.684C121.788 23.8653 121.762 24.0253 121.708 24.164C121.666 24.3027 121.612 24.4253 121.548 24.532H123.084C123.276 24.532 123.426 24.5853 123.532 24.692C123.65 24.7987 123.708 24.9747 123.708 25.22C123.708 25.3373 123.692 25.4547 123.66 25.572C123.639 25.6893 123.607 25.796 123.564 25.892H118.108ZM130.456 25.892V31.748C130.456 32.1747 130.541 32.484 130.712 32.676C130.882 32.868 131.154 32.964 131.528 32.964C131.794 32.964 132.072 32.9 132.36 32.772C132.658 32.6333 132.925 32.4467 133.16 32.212C133.405 31.9667 133.608 31.6787 133.768 31.348C133.928 31.0173 134.008 30.6493 134.008 30.244C134.008 29.8707 133.896 29.604 133.672 29.444C133.458 29.2733 133.17 29.188 132.808 29.188H132.296C132.242 29.1133 132.194 29.0227 132.152 28.916C132.12 28.8093 132.104 28.6973 132.104 28.58C132.104 28.292 132.194 28.0787 132.376 27.94C132.557 27.7907 132.818 27.716 133.16 27.716H133.384C133.725 27.716 134.04 27.7693 134.328 27.876C134.626 27.9827 134.882 28.1427 135.096 28.356C135.309 28.5587 135.474 28.8147 135.592 29.124C135.72 29.4333 135.784 29.7907 135.784 30.196C135.784 30.804 135.661 31.3693 135.416 31.892C135.181 32.404 134.861 32.852 134.456 33.236C134.061 33.62 133.608 33.924 133.096 34.148C132.584 34.3613 132.05 34.468 131.496 34.468C130.6 34.468 129.917 34.2333 129.448 33.764C128.978 33.2947 128.744 32.6227 128.744 31.748V30.036C128.637 29.876 128.498 29.7213 128.328 29.572C128.168 29.4227 127.986 29.2893 127.784 29.172C127.592 29.0547 127.384 28.9587 127.16 28.884C126.946 28.8093 126.728 28.772 126.504 28.772C126.088 28.772 125.762 28.8733 125.528 29.076C125.293 29.2787 125.176 29.5453 125.176 29.876C125.176 30.1107 125.224 30.3133 125.32 30.484C125.266 30.6013 125.176 30.7027 125.048 30.788C124.92 30.8733 124.754 30.916 124.552 30.916C124.274 30.916 124.034 30.8093 123.832 30.596C123.629 30.3827 123.528 30.068 123.528 29.652C123.528 29.2787 123.597 28.9533 123.736 28.676C123.885 28.388 124.082 28.1533 124.328 27.972C124.584 27.78 124.872 27.636 125.192 27.54C125.522 27.444 125.874 27.396 126.248 27.396C126.792 27.396 127.272 27.4867 127.688 27.668C128.104 27.8493 128.456 28.068 128.744 28.324V25.892H122.952C122.76 25.892 122.61 25.8387 122.504 25.732C122.386 25.6147 122.328 25.4333 122.328 25.188C122.328 25.0707 122.344 24.9533 122.376 24.836C122.397 24.7187 122.429 24.6173 122.472 24.532H133.736C133.789 24.4467 133.826 24.3667 133.848 24.292C133.869 24.2067 133.88 24.1053 133.88 23.988C133.88 23.732 133.784 23.524 133.592 23.364C133.4 23.1933 133.074 23.108 132.616 23.108C132.018 23.108 131.469 23.1133 130.968 23.124C130.466 23.124 129.96 23.1293 129.448 23.14C128.936 23.14 128.386 23.1453 127.8 23.156C127.224 23.156 126.568 23.156 125.832 23.156C124.968 23.156 124.29 22.9693 123.8 22.596C123.32 22.212 123.08 21.716 123.08 21.108C123.08 20.7133 123.17 20.4093 123.352 20.196C123.533 19.972 123.778 19.86 124.088 19.86C124.269 19.86 124.418 19.8867 124.536 19.94C124.653 19.9933 124.749 20.0467 124.824 20.1C124.813 20.1747 124.802 20.2547 124.792 20.34C124.792 20.4147 124.792 20.5053 124.792 20.612C124.792 21.4013 125.272 21.796 126.232 21.796C126.733 21.796 127.288 21.796 127.896 21.796C128.504 21.7853 129.112 21.78 129.72 21.78C130.338 21.7693 130.93 21.764 131.496 21.764C132.061 21.7533 132.552 21.748 132.968 21.748C133.8 21.748 134.429 21.9187 134.856 22.26C135.282 22.6013 135.496 23.076 135.496 23.684C135.496 23.8653 135.469 24.0253 135.416 24.164C135.373 24.3027 135.325 24.4253 135.272 24.532H136.68C136.872 24.532 137.021 24.5853 137.128 24.692C137.245 24.7987 137.304 24.9747 137.304 25.22C137.304 25.3373 137.288 25.4547 137.256 25.572C137.224 25.6893 137.192 25.796 137.16 25.892H130.456ZM150.565 24.532C150.97 24.532 151.173 24.7613 151.173 25.22C151.173 25.3373 151.157 25.4547 151.125 25.572C151.104 25.6893 151.072 25.796 151.029 25.892H149.013V34.5C148.821 34.692 148.501 34.788 148.053 34.788C147.968 34.788 147.882 34.7773 147.797 34.756C147.2 34.34 146.624 33.9667 146.069 33.636C145.514 33.2947 144.96 32.9747 144.405 32.676C143.85 32.3773 143.28 32.1 142.693 31.844C142.117 31.5773 141.504 31.316 140.853 31.06C140.789 30.9427 140.736 30.788 140.693 30.596C140.65 30.3933 140.629 30.1747 140.629 29.94C140.629 29.8227 140.634 29.7107 140.645 29.604C140.666 29.4867 140.688 29.3907 140.709 29.316L141.749 29.188C142.688 29.0707 143.36 28.8307 143.765 28.468C144.181 28.0947 144.389 27.636 144.389 27.092C144.389 26.644 144.272 26.3187 144.037 26.116C143.802 25.9133 143.53 25.812 143.221 25.812C142.901 25.812 142.634 25.9133 142.421 26.116C142.208 26.3187 142.101 26.596 142.101 26.948C142.101 27.1293 142.122 27.284 142.165 27.412C142.208 27.5293 142.256 27.6413 142.309 27.748C142.138 28.0253 141.856 28.164 141.461 28.164C141.184 28.164 140.928 28.052 140.693 27.828C140.458 27.604 140.341 27.2573 140.341 26.788C140.341 26.436 140.405 26.1107 140.533 25.812C140.672 25.5133 140.864 25.2573 141.109 25.044C141.365 24.82 141.664 24.6493 142.005 24.532C142.346 24.4147 142.725 24.356 143.141 24.356C143.568 24.356 143.962 24.42 144.325 24.548C144.688 24.676 144.997 24.8627 145.253 25.108C145.509 25.3533 145.706 25.652 145.845 26.004C145.994 26.3453 146.069 26.7293 146.069 27.156C146.069 27.956 145.792 28.628 145.237 29.172C144.682 29.7053 143.92 30.0733 142.949 30.276C143.333 30.436 143.728 30.6173 144.133 30.82C144.538 31.0227 144.938 31.236 145.333 31.46C145.728 31.6733 146.101 31.892 146.453 32.116C146.805 32.3293 147.125 32.532 147.413 32.724C147.392 32.5747 147.376 32.3987 147.365 32.196C147.354 31.9827 147.344 31.7693 147.333 31.556C147.322 31.332 147.312 31.124 147.301 30.932C147.301 30.7293 147.301 30.5587 147.301 30.42V25.796C147.301 25.4547 147.402 25.1613 147.605 24.916C147.808 24.66 148.122 24.532 148.549 24.532H150.565ZM150.098 25.892C149.682 25.892 149.474 25.6573 149.474 25.188C149.474 25.0707 149.49 24.9533 149.522 24.836C149.543 24.7187 149.575 24.6173 149.618 24.532H151.394C151.725 24.532 152.013 24.596 152.258 24.724C152.514 24.852 152.701 25.0387 152.818 25.284C152.903 25.0173 153.047 24.8253 153.25 24.708C153.463 24.5907 153.703 24.532 153.97 24.532H154.93C155.122 24.532 155.271 24.5853 155.378 24.692C155.495 24.7987 155.554 24.9747 155.554 25.22C155.554 25.3373 155.538 25.4547 155.506 25.572C155.485 25.6893 155.453 25.796 155.41 25.892H154.146C153.911 25.892 153.725 25.9507 153.586 26.068C153.447 26.1747 153.378 26.3773 153.378 26.676V34.756C153.314 34.7773 153.218 34.7987 153.09 34.82C152.962 34.8413 152.818 34.852 152.658 34.852C152.359 34.852 152.119 34.7987 151.938 34.692C151.757 34.5853 151.666 34.3667 151.666 34.036V26.436C151.666 26.0733 151.495 25.892 151.154 25.892H150.098ZM162.537 25.892V26.772C163.124 26.7933 163.668 26.8787 164.169 27.028C164.67 27.1667 165.108 27.3693 165.481 27.636C165.854 27.892 166.148 28.2067 166.361 28.58C166.574 28.9427 166.681 29.364 166.681 29.844C166.681 30.2387 166.617 30.5853 166.489 30.884C166.372 31.1827 166.212 31.4333 166.009 31.636C165.806 31.828 165.577 31.972 165.321 32.068C165.076 32.164 164.825 32.212 164.569 32.212C164.228 32.212 163.966 32.1267 163.785 31.956C163.614 31.7853 163.529 31.5613 163.529 31.284C163.529 31.06 163.566 30.884 163.641 30.756H163.897C164.196 30.756 164.436 30.6707 164.617 30.5C164.809 30.3293 164.905 30.0893 164.905 29.78C164.905 29.3427 164.697 28.9907 164.281 28.724C163.876 28.4573 163.294 28.292 162.537 28.228V34.5C162.345 34.692 162.025 34.788 161.577 34.788C161.524 34.788 161.476 34.7827 161.433 34.772C161.401 34.772 161.364 34.7667 161.321 34.756C160.83 34.3613 160.356 33.9987 159.897 33.668C159.438 33.3267 158.974 33.012 158.505 32.724C158.046 32.4253 157.577 32.1427 157.097 31.876C156.617 31.5987 156.11 31.3213 155.577 31.044C155.481 30.884 155.406 30.6867 155.353 30.452C155.3 30.2067 155.273 29.9613 155.273 29.716C155.273 29.6627 155.273 29.6093 155.273 29.556C155.273 29.492 155.278 29.4333 155.289 29.38C155.673 29.1027 156.089 28.836 156.537 28.58C156.996 28.3133 157.465 28.068 157.945 27.844C158.436 27.6093 158.926 27.4013 159.417 27.22C159.908 27.028 160.382 26.8733 160.841 26.756V25.892H154.905C154.713 25.892 154.564 25.8387 154.457 25.732C154.34 25.6147 154.281 25.4333 154.281 25.188C154.281 25.0707 154.297 24.9533 154.329 24.836C154.361 24.7187 154.393 24.6173 154.425 24.532H167.353C167.545 24.532 167.694 24.5853 167.801 24.692C167.918 24.7987 167.977 24.9747 167.977 25.22C167.977 25.3373 167.961 25.4547 167.929 25.572C167.908 25.6893 167.876 25.796 167.833 25.892H162.537ZM160.825 28.356C160.174 28.5373 159.518 28.7827 158.857 29.092C158.206 29.4013 157.625 29.7267 157.113 30.068C157.87 30.4947 158.59 30.9427 159.273 31.412C159.956 31.8707 160.51 32.2707 160.937 32.612C160.926 32.4627 160.91 32.2867 160.889 32.084C160.878 31.8813 160.868 31.6787 160.857 31.476C160.846 31.2627 160.836 31.06 160.825 30.868C160.825 30.6653 160.825 30.4947 160.825 30.356V28.356ZM168 30.292C168 29.2893 168.154 28.42 168.464 27.684C168.773 26.948 169.13 26.3507 169.536 25.892H166.736C166.32 25.892 166.112 25.6573 166.112 25.188C166.112 25.0707 166.128 24.9533 166.16 24.836C166.181 24.7187 166.213 24.6173 166.256 24.532H172.576C172.992 24.532 173.2 24.7613 173.2 25.22C173.2 25.3373 173.184 25.4547 173.152 25.572C173.13 25.6893 173.098 25.796 173.056 25.892H171.392C171.221 26.0093 171.04 26.196 170.848 26.452C170.656 26.6973 170.48 27.0013 170.32 27.364C170.16 27.716 170.026 28.116 169.92 28.564C169.813 29.0013 169.76 29.4653 169.76 29.956C169.76 30.5107 169.818 31.0067 169.936 31.444C170.064 31.8707 170.229 32.244 170.432 32.564C170.634 32.884 170.864 33.156 171.12 33.38C171.376 33.5933 171.637 33.764 171.904 33.892C171.914 33.9453 171.92 33.9933 171.92 34.036C171.92 34.0787 171.92 34.1267 171.92 34.18C171.92 34.4253 171.84 34.628 171.68 34.788C171.53 34.948 171.317 35.028 171.04 35.028C170.73 35.028 170.394 34.9213 170.032 34.708C169.68 34.4947 169.349 34.1853 169.04 33.78C168.741 33.3747 168.49 32.8787 168.288 32.292C168.096 31.7053 168 31.0387 168 30.292ZM181.919 25.892V34.58C181.855 34.6013 181.754 34.6173 181.615 34.628C181.487 34.6493 181.349 34.66 181.199 34.66C180.89 34.66 180.645 34.6067 180.463 34.5C180.293 34.3933 180.207 34.18 180.207 33.86V28.724C180.154 28.7027 180.09 28.6867 180.015 28.676C179.941 28.6653 179.855 28.66 179.759 28.66C179.45 28.66 179.189 28.7773 178.975 29.012C178.773 29.236 178.645 29.5613 178.591 29.988L178.495 30.628C178.314 30.7347 178.063 30.788 177.743 30.788C177.626 30.788 177.498 30.7773 177.359 30.756C177.231 30.724 177.125 30.6813 177.039 30.628L176.927 29.988C176.853 29.5613 176.687 29.236 176.431 29.012C176.175 28.7773 175.877 28.66 175.535 28.66C175.173 28.66 174.869 28.7827 174.623 29.028C174.378 29.2733 174.255 29.6147 174.255 30.052C174.255 30.5 174.394 30.836 174.671 31.06C174.949 31.284 175.258 31.396 175.599 31.396C175.685 31.396 175.754 31.396 175.807 31.396C175.861 31.3853 175.909 31.3747 175.951 31.364C175.994 31.4387 176.026 31.524 176.047 31.62C176.079 31.7053 176.095 31.8013 176.095 31.908C176.095 32.4947 175.722 32.788 174.975 32.788C174.687 32.788 174.394 32.7347 174.095 32.628C173.807 32.5213 173.541 32.356 173.295 32.132C173.05 31.908 172.847 31.6253 172.687 31.284C172.538 30.932 172.463 30.516 172.463 30.036C172.463 29.5453 172.543 29.124 172.703 28.772C172.874 28.4093 173.093 28.1107 173.359 27.876C173.626 27.6307 173.925 27.4493 174.255 27.332C174.586 27.2147 174.922 27.156 175.263 27.156C175.85 27.156 176.351 27.2947 176.767 27.572C177.183 27.8387 177.477 28.1747 177.647 28.58C177.797 28.132 178.058 27.7853 178.431 27.54C178.805 27.284 179.231 27.156 179.711 27.156C179.807 27.156 179.898 27.1613 179.983 27.172C180.069 27.1827 180.143 27.1987 180.207 27.22V25.892H172.015C171.599 25.892 171.391 25.6573 171.391 25.188C171.391 25.0707 171.407 24.9533 171.439 24.836C171.461 24.7187 171.493 24.6173 171.535 24.532H183.455C183.871 24.532 184.079 24.7613 184.079 25.22C184.079 25.3373 184.063 25.4547 184.031 25.572C184.01 25.6893 183.978 25.796 183.935 25.892H181.919ZM197.529 25.892V34.58C197.465 34.6013 197.363 34.6173 197.225 34.628C197.097 34.6493 196.958 34.66 196.809 34.66C196.499 34.66 196.254 34.6067 196.073 34.5C195.902 34.3933 195.817 34.18 195.817 33.86V28.724C195.763 28.7027 195.699 28.6867 195.625 28.676C195.55 28.6653 195.465 28.66 195.369 28.66C195.059 28.66 194.798 28.7773 194.585 29.012C194.382 29.236 194.254 29.5613 194.201 29.988L194.105 30.628C193.923 30.7347 193.673 30.788 193.353 30.788C193.235 30.788 193.107 30.7773 192.969 30.756C192.841 30.724 192.734 30.6813 192.649 30.628L192.537 29.988C192.462 29.5613 192.297 29.236 192.041 29.012C191.785 28.7773 191.486 28.66 191.145 28.66C190.782 28.66 190.478 28.7827 190.233 29.028C189.987 29.2733 189.865 29.6147 189.865 30.052C189.865 30.5 190.003 30.836 190.281 31.06C190.558 31.284 190.867 31.396 191.209 31.396C191.294 31.396 191.363 31.396 191.417 31.396C191.47 31.3853 191.518 31.3747 191.561 31.364C191.603 31.4387 191.635 31.524 191.657 31.62C191.689 31.7053 191.705 31.8013 191.705 31.908C191.705 32.4947 191.331 32.788 190.585 32.788C190.297 32.788 190.003 32.7347 189.705 32.628C189.417 32.5213 189.15 32.356 188.905 32.132C188.659 31.908 188.457 31.6253 188.297 31.284C188.147 30.932 188.073 30.516 188.073 30.036C188.073 29.5453 188.153 29.124 188.313 28.772C188.483 28.4093 188.702 28.1107 188.969 27.876C189.235 27.6307 189.534 27.4493 189.865 27.332C190.195 27.2147 190.531 27.156 190.873 27.156C191.459 27.156 191.961 27.2947 192.377 27.572C192.793 27.8387 193.086 28.1747 193.257 28.58C193.406 28.132 193.667 27.7853 194.041 27.54C194.414 27.284 194.841 27.156 195.321 27.156C195.417 27.156 195.507 27.1613 195.593 27.172C195.678 27.1827 195.753 27.1987 195.817 27.22V25.892H187.625C187.209 25.892 187.001 25.6573 187.001 25.188C187.001 25.0707 187.017 24.9533 187.049 24.836C187.07 24.7187 187.102 24.6173 187.145 24.532H199.065C199.481 24.532 199.689 24.7613 199.689 25.22C199.689 25.3373 199.673 25.4547 199.641 25.572C199.619 25.6893 199.587 25.796 199.545 25.892H197.529ZM209.702 24.532C209.894 24.532 210.043 24.5853 210.15 24.692C210.267 24.7987 210.326 24.9747 210.326 25.22C210.326 25.3373 210.31 25.4547 210.278 25.572C210.246 25.6893 210.214 25.796 210.182 25.892H208.15V34.596C208.086 34.6173 207.984 34.6333 207.846 34.644C207.718 34.6653 207.579 34.676 207.43 34.676C207.131 34.676 206.891 34.6227 206.71 34.516C206.528 34.4093 206.438 34.196 206.438 33.876V27.38C206.128 26.932 205.739 26.5693 205.27 26.292C204.811 26.004 204.299 25.86 203.734 25.86C203.382 25.86 203.062 25.9133 202.774 26.02C202.486 26.116 202.235 26.2547 202.022 26.436C201.819 26.6173 201.654 26.8307 201.526 27.076C201.398 27.3107 201.318 27.5667 201.286 27.844C201.446 27.7907 201.632 27.7427 201.846 27.7C202.059 27.6467 202.294 27.62 202.55 27.62C202.848 27.62 203.126 27.668 203.382 27.764C203.638 27.8493 203.862 27.9773 204.054 28.148C204.246 28.308 204.395 28.5107 204.502 28.756C204.608 29.0013 204.662 29.2787 204.662 29.588C204.662 30.484 204.171 31.2893 203.19 32.004C202.998 32.1427 202.811 32.2547 202.63 32.34C202.448 32.4147 202.267 32.452 202.086 32.452C201.84 32.452 201.638 32.3613 201.478 32.18C201.318 31.9987 201.206 31.7693 201.142 31.492C201.366 31.364 201.579 31.2307 201.782 31.092C201.984 30.9427 202.16 30.7933 202.31 30.644C202.47 30.484 202.598 30.324 202.694 30.164C202.79 30.004 202.838 29.844 202.838 29.684C202.838 29.492 202.774 29.3373 202.646 29.22C202.518 29.1027 202.342 29.044 202.118 29.044C201.862 29.044 201.531 29.1027 201.126 29.22L200.646 29.364C200.582 29.3853 200.512 29.4067 200.438 29.428C200.363 29.4387 200.283 29.444 200.198 29.444C199.984 29.444 199.819 29.316 199.702 29.06C199.595 28.804 199.542 28.4947 199.542 28.132C199.542 27.556 199.648 27.0387 199.862 26.58C200.075 26.1107 200.363 25.716 200.726 25.396C201.099 25.0653 201.531 24.8093 202.022 24.628C202.523 24.4467 203.062 24.356 203.638 24.356C204.31 24.356 204.896 24.4733 205.398 24.708C205.899 24.9427 206.32 25.2253 206.662 25.556C206.704 25.268 206.827 25.028 207.03 24.836C207.232 24.6333 207.52 24.532 207.894 24.532H209.702ZM214.579 32.34C214.504 32.1907 214.467 32.0147 214.467 31.812C214.467 31.6413 214.494 31.4813 214.547 31.332C214.611 31.1827 214.686 31.0653 214.771 30.98C215.016 31.0227 215.299 31.0547 215.619 31.076C215.939 31.0973 216.238 31.108 216.515 31.108C217.518 31.108 218.291 30.9053 218.835 30.5C219.379 30.084 219.651 29.5347 219.651 28.852C219.651 28.308 219.507 27.892 219.219 27.604C218.931 27.316 218.574 27.172 218.147 27.172C217.742 27.172 217.406 27.3 217.139 27.556C216.883 27.8013 216.755 28.1427 216.755 28.58C216.755 28.7187 216.771 28.852 216.803 28.98C216.835 29.0973 216.872 29.1987 216.915 29.284C216.723 29.5613 216.435 29.7 216.051 29.7C215.774 29.7 215.523 29.5933 215.299 29.38C215.075 29.156 214.963 28.8093 214.963 28.34C214.963 28.02 215.022 27.7213 215.139 27.444C215.267 27.1667 215.438 26.9213 215.651 26.708C215.875 26.4947 216.136 26.3187 216.435 26.18C216.734 26.0413 217.059 25.9453 217.411 25.892H213.859C213.443 25.892 213.235 25.6573 213.235 25.188C213.235 25.0707 213.251 24.9533 213.283 24.836C213.304 24.7187 213.336 24.6173 213.379 24.532H219.779C219.832 24.4467 219.87 24.3613 219.891 24.276C219.923 24.18 219.939 24.0733 219.939 23.956C219.939 23.7 219.843 23.4973 219.651 23.348C219.459 23.188 219.128 23.108 218.659 23.108C218.478 23.108 218.318 23.1133 218.179 23.124C218.051 23.124 217.918 23.1293 217.779 23.14C217.651 23.14 217.507 23.1453 217.347 23.156C217.187 23.156 216.99 23.156 216.755 23.156C215.891 23.156 215.214 22.9693 214.723 22.596C214.243 22.212 214.003 21.716 214.003 21.108C214.003 20.7133 214.094 20.4093 214.275 20.196C214.456 19.972 214.702 19.86 215.011 19.86C215.192 19.86 215.342 19.8867 215.459 19.94C215.576 19.9933 215.672 20.0467 215.747 20.1C215.736 20.1747 215.726 20.2547 215.715 20.34C215.715 20.4147 215.715 20.5053 215.715 20.612C215.715 21.4013 216.19 21.796 217.139 21.796C217.459 21.796 217.768 21.7907 218.067 21.78C218.376 21.7587 218.707 21.748 219.059 21.748C219.87 21.748 220.488 21.9187 220.915 22.26C221.342 22.6013 221.555 23.06 221.555 23.636C221.555 23.8173 221.528 23.9827 221.475 24.132C221.432 24.2813 221.379 24.4147 221.315 24.532H222.515C222.931 24.532 223.139 24.7613 223.139 25.22C223.139 25.3373 223.123 25.4547 223.091 25.572C223.07 25.6893 223.038 25.796 222.995 25.892H218.723C219.107 25.9453 219.459 26.052 219.779 26.212C220.11 26.3613 220.398 26.564 220.643 26.82C220.888 27.076 221.08 27.38 221.219 27.732C221.358 28.0733 221.427 28.4573 221.427 28.884C221.427 29.428 221.32 29.9027 221.107 30.308C220.904 30.7133 220.622 31.0547 220.259 31.332C219.907 31.6093 219.496 31.8227 219.027 31.972C218.558 32.1107 218.062 32.1907 217.539 32.212C218.318 32.5107 219.038 32.7987 219.699 33.076C220.371 33.3533 220.894 33.5773 221.267 33.748C221.512 33.8653 221.699 33.9933 221.827 34.132C221.966 34.2707 222.035 34.4467 222.035 34.66C222.035 34.8947 221.971 35.092 221.843 35.252C221.715 35.4227 221.555 35.5507 221.363 35.636C220.691 35.2733 220.083 34.9533 219.539 34.676C219.006 34.3987 218.483 34.1373 217.971 33.892C217.459 33.636 216.931 33.3853 216.387 33.14C215.854 32.8947 215.251 32.628 214.579 32.34ZM230.578 25.892V34.58C230.514 34.6013 230.418 34.6173 230.29 34.628C230.162 34.6493 230.023 34.66 229.874 34.66C229.565 34.66 229.319 34.6067 229.138 34.5C228.957 34.3933 228.866 34.18 228.866 33.86V31.188C228.717 30.932 228.546 30.692 228.354 30.468C228.173 30.244 227.97 30.052 227.746 29.892C227.522 29.7213 227.287 29.588 227.042 29.492C226.797 29.3853 226.546 29.332 226.29 29.332C225.895 29.332 225.581 29.4387 225.346 29.652C225.122 29.8547 225.01 30.1213 225.01 30.452C225.01 30.6333 225.037 30.7987 225.09 30.948C225.143 31.0867 225.202 31.22 225.266 31.348C225.181 31.476 225.063 31.588 224.914 31.684C224.775 31.78 224.594 31.828 224.37 31.828C224.061 31.828 223.778 31.7 223.522 31.444C223.277 31.188 223.154 30.7933 223.154 30.26C223.154 29.8547 223.229 29.4973 223.378 29.188C223.538 28.8787 223.746 28.6227 224.002 28.42C224.269 28.2067 224.573 28.0467 224.914 27.94C225.266 27.8333 225.629 27.78 226.002 27.78C226.333 27.78 226.642 27.8173 226.93 27.892C227.229 27.9667 227.495 28.068 227.73 28.196C227.975 28.3133 228.189 28.452 228.37 28.612C228.562 28.7613 228.727 28.9107 228.866 29.06V25.892H222.562C222.146 25.892 221.938 25.6573 221.938 25.188C221.938 25.0707 221.954 24.9533 221.986 24.836C222.007 24.7187 222.039 24.6173 222.082 24.532H232.13C232.546 24.532 232.754 24.7613 232.754 25.22C232.754 25.3373 232.738 25.4547 232.706 25.572C232.685 25.6893 232.653 25.796 232.61 25.892H230.578ZM243.881 25.892V26.772C244.468 26.7933 245.012 26.8787 245.513 27.028C246.014 27.1667 246.452 27.3693 246.825 27.636C247.198 27.892 247.492 28.2067 247.705 28.58C247.918 28.9427 248.025 29.364 248.025 29.844C248.025 30.2387 247.961 30.5853 247.833 30.884C247.716 31.1827 247.556 31.4333 247.353 31.636C247.15 31.828 246.921 31.972 246.665 32.068C246.42 32.164 246.169 32.212 245.913 32.212C245.572 32.212 245.31 32.1267 245.129 31.956C244.958 31.7853 244.873 31.5613 244.873 31.284C244.873 31.06 244.91 30.884 244.985 30.756H245.241C245.54 30.756 245.78 30.6707 245.961 30.5C246.153 30.3293 246.249 30.0893 246.249 29.78C246.249 29.3427 246.041 28.9907 245.625 28.724C245.22 28.4573 244.638 28.292 243.881 28.228V34.5C243.689 34.692 243.369 34.788 242.921 34.788C242.868 34.788 242.82 34.7827 242.777 34.772C242.745 34.772 242.708 34.7667 242.665 34.756C242.174 34.3613 241.7 33.9987 241.241 33.668C240.782 33.3267 240.318 33.012 239.849 32.724C239.39 32.4253 238.921 32.1427 238.441 31.876C237.961 31.5987 237.454 31.3213 236.921 31.044C236.825 30.884 236.75 30.6867 236.697 30.452C236.644 30.2067 236.617 29.9613 236.617 29.716C236.617 29.6627 236.617 29.6093 236.617 29.556C236.617 29.492 236.622 29.4333 236.633 29.38C237.017 29.1027 237.433 28.836 237.881 28.58C238.34 28.3133 238.809 28.068 239.289 27.844C239.78 27.6093 240.27 27.4013 240.761 27.22C241.252 27.028 241.726 26.8733 242.185 26.756V25.892H236.249C236.057 25.892 235.908 25.8387 235.801 25.732C235.684 25.6147 235.625 25.4333 235.625 25.188C235.625 25.0707 235.641 24.9533 235.673 24.836C235.705 24.7187 235.737 24.6173 235.769 24.532H248.697C248.889 24.532 249.038 24.5853 249.145 24.692C249.262 24.7987 249.321 24.9747 249.321 25.22C249.321 25.3373 249.305 25.4547 249.273 25.572C249.252 25.6893 249.22 25.796 249.177 25.892H243.881ZM242.169 28.356C241.518 28.5373 240.862 28.7827 240.201 29.092C239.55 29.4013 238.969 29.7267 238.457 30.068C239.214 30.4947 239.934 30.9427 240.617 31.412C241.3 31.8707 241.854 32.2707 242.281 32.612C242.27 32.4627 242.254 32.2867 242.233 32.084C242.222 31.8813 242.212 31.6787 242.201 31.476C242.19 31.2627 242.18 31.06 242.169 30.868C242.169 30.6653 242.169 30.4947 242.169 30.356V28.356ZM256.84 25.892V34.5C256.648 34.692 256.328 34.788 255.88 34.788C255.795 34.788 255.709 34.7773 255.624 34.756C255.112 34.3613 254.616 33.9987 254.136 33.668C253.667 33.3267 253.192 33.0067 252.712 32.708C252.243 32.4093 251.763 32.1267 251.272 31.86C250.781 31.5827 250.264 31.3107 249.72 31.044C249.624 30.884 249.549 30.6867 249.496 30.452C249.443 30.2067 249.416 29.9613 249.416 29.716C249.416 29.6627 249.416 29.6093 249.416 29.556C249.416 29.492 249.421 29.4333 249.432 29.38C249.827 29.1027 250.259 28.836 250.728 28.58C251.197 28.3133 251.677 28.068 252.168 27.844C252.669 27.6093 253.171 27.4013 253.672 27.22C254.184 27.028 254.675 26.8733 255.144 26.756V25.892H248.984C248.568 25.892 248.36 25.6573 248.36 25.188C248.36 25.0707 248.376 24.9533 248.408 24.836C248.429 24.7187 248.461 24.6173 248.504 24.532H258.392C258.797 24.532 259 24.7613 259 25.22C259 25.3373 258.984 25.4547 258.952 25.572C258.931 25.6893 258.899 25.796 258.856 25.892H256.84ZM255.128 28.356C254.445 28.5373 253.763 28.7827 253.08 29.092C252.408 29.4013 251.8 29.7267 251.256 30.068C251.651 30.2813 252.04 30.5053 252.424 30.74C252.808 30.964 253.171 31.188 253.512 31.412C253.853 31.636 254.173 31.8547 254.472 32.068C254.771 32.2707 255.027 32.452 255.24 32.612C255.219 32.4627 255.203 32.2867 255.192 32.084C255.181 31.8813 255.171 31.6787 255.16 31.476C255.149 31.2627 255.139 31.06 255.128 30.868C255.128 30.6653 255.128 30.4947 255.128 30.356V28.356ZM250.088 34.548C250.088 34.2387 250.189 33.9933 250.392 33.812C250.595 33.62 250.851 33.524 251.16 33.524C251.469 33.524 251.72 33.62 251.912 33.812C252.115 34.004 252.216 34.2493 252.216 34.548C252.216 34.836 252.115 35.076 251.912 35.268C251.72 35.4707 251.469 35.572 251.16 35.572C250.851 35.572 250.595 35.4707 250.392 35.268C250.189 35.076 250.088 34.836 250.088 34.548ZM256.502 29.892C256.876 30.276 257.281 30.612 257.718 30.9C258.145 31.188 258.604 31.332 259.094 31.332C259.478 31.332 259.788 31.2413 260.022 31.06C260.268 30.868 260.39 30.6013 260.39 30.26C260.39 29.8867 260.273 29.6093 260.038 29.428C259.804 29.2467 259.484 29.156 259.078 29.156H258.774C258.71 29.0173 258.678 28.8307 258.678 28.596C258.678 28.308 258.774 28.084 258.966 27.924C259.169 27.764 259.43 27.684 259.75 27.684C260.028 27.684 260.31 27.732 260.598 27.828C260.886 27.924 261.148 28.0787 261.382 28.292C261.628 28.4947 261.825 28.756 261.974 29.076C262.134 29.396 262.214 29.78 262.214 30.228C262.214 30.6013 262.145 30.948 262.006 31.268C261.868 31.588 261.665 31.8653 261.398 32.1C261.142 32.324 260.833 32.5 260.47 32.628C260.108 32.756 259.702 32.82 259.254 32.82C258.881 32.82 258.534 32.772 258.214 32.676C257.884 32.58 257.585 32.4573 257.318 32.308C257.041 32.1587 256.801 31.9933 256.598 31.812C256.385 31.62 256.204 31.4333 256.054 31.252L256.502 29.892ZM257.558 24.532H262.822C263.238 24.532 263.446 24.7613 263.446 25.22C263.446 25.3373 263.43 25.4547 263.398 25.572C263.377 25.6893 263.345 25.796 263.302 25.892H257.558V24.532ZM270.969 25.892V34.58C270.905 34.6013 270.809 34.6173 270.681 34.628C270.553 34.6493 270.414 34.66 270.265 34.66C269.955 34.66 269.71 34.6067 269.529 34.5C269.347 34.3933 269.257 34.18 269.257 33.86V31.188C269.107 30.932 268.937 30.692 268.745 30.468C268.563 30.244 268.361 30.052 268.137 29.892C267.913 29.7213 267.678 29.588 267.433 29.492C267.187 29.3853 266.937 29.332 266.681 29.332C266.286 29.332 265.971 29.4387 265.737 29.652C265.513 29.8547 265.401 30.1213 265.401 30.452C265.401 30.6333 265.427 30.7987 265.481 30.948C265.534 31.0867 265.593 31.22 265.657 31.348C265.571 31.476 265.454 31.588 265.305 31.684C265.166 31.78 264.985 31.828 264.761 31.828C264.451 31.828 264.169 31.7 263.913 31.444C263.667 31.188 263.545 30.7933 263.545 30.26C263.545 29.8547 263.619 29.4973 263.769 29.188C263.929 28.8787 264.137 28.6227 264.393 28.42C264.659 28.2067 264.963 28.0467 265.305 27.94C265.657 27.8333 266.019 27.78 266.393 27.78C266.723 27.78 267.033 27.8173 267.321 27.892C267.619 27.9667 267.886 28.068 268.121 28.196C268.366 28.3133 268.579 28.452 268.761 28.612C268.953 28.7613 269.118 28.9107 269.257 29.06V25.892H262.953C262.537 25.892 262.329 25.6573 262.329 25.188C262.329 25.0707 262.345 24.9533 262.377 24.836C262.398 24.7187 262.43 24.6173 262.473 24.532H272.521C272.937 24.532 273.145 24.7613 273.145 25.22C273.145 25.3373 273.129 25.4547 273.097 25.572C273.075 25.6893 273.043 25.796 273.001 25.892H270.969Z" fill="white"/>
<defs>
<filter id="filter0_d" x="0" y="0" width="345" height="70" filterUnits="userSpaceOnUse" color-interpolation-filters="sRGB">
<feFlood flood-opacity="0" result="BackgroundImageFix"/>
<feColorMatrix in="SourceAlpha" type="matrix" values="0 0 0 0 0 0 0 0 0 0 0 0 0 0 0 0 0 0 127 0" result="hardAlpha"/>
<feOffset dy="4"/>
<feGaussianBlur stdDeviation="2.5"/>
<feColorMatrix type="matrix" values="0 0 0 0 0 0 0 0 0 0 0 0 0 0 0 0 0 0 0.05 0"/>
<feBlend mode="normal" in2="BackgroundImageFix" result="effect1_dropShadow"/>
<feBlend mode="normal" in="SourceGraphic" in2="effect1_dropShadow" result="shape"/>
</filter>
</defs>
</svg>
