<svg width="264" height="193" viewBox="0 0 264 193" fill="none" xmlns="http://www.w3.org/2000/svg">
<path d="M138.513 192.409H125.36C124.377 192.409 123.435 192.02 122.738 191.326C122.042 190.633 121.649 189.692 121.645 188.709V6.15757C121.645 5.17211 122.036 4.22702 122.733 3.53019C123.43 2.83337 124.375 2.44189 125.36 2.44189H138.497C139.483 2.44189 140.428 2.83337 141.125 3.53019C141.822 4.22702 142.213 5.17211 142.213 6.15757V188.709C142.209 189.692 141.816 190.633 141.119 191.326C140.423 192.02 139.48 192.409 138.497 192.409" fill="#D28358"/>
<path d="M142.229 16.5737H121.66V22.6837H142.229V16.5737Z" fill="#AF6455"/>
<path d="M256.373 16.7761H7.49893C6.55234 16.7781 5.61463 16.5934 4.73951 16.2326C3.86439 15.8718 3.069 15.3419 2.39894 14.6733C1.72888 14.0047 1.19729 13.2105 0.834573 12.3361C0.471857 11.4618 0.285154 10.5245 0.285156 9.57791V7.21481C0.285154 6.26822 0.471857 5.33092 0.834573 4.45659C1.19729 3.58225 1.72888 2.78801 2.39894 2.11939C3.069 1.45077 3.86439 0.920883 4.73951 0.560055C5.61463 0.199228 6.55234 0.0145739 7.49893 0.0166184H256.373C257.32 0.0145739 258.258 0.199228 259.133 0.560055C260.008 0.920883 260.803 1.45077 261.473 2.11939C262.143 2.78801 262.675 3.58225 263.038 4.45659C263.4 5.33092 263.587 6.26822 263.587 7.21481V9.57791C263.587 10.5245 263.4 11.4618 263.038 12.3361C262.675 13.2105 262.143 14.0047 261.473 14.6733C260.803 15.3419 260.008 15.8718 259.133 16.2326C258.258 16.5934 257.32 16.7781 256.373 16.7761Z" fill="#AF6455"/>
<path d="M255.953 16.7758H7.93419C6.93044 16.7778 5.93618 16.5819 5.00824 16.1992C4.0803 15.8165 3.23696 15.2545 2.52647 14.5455C1.81599 13.8365 1.25228 12.9942 0.86769 12.0671C0.483098 11.1399 0.285154 10.146 0.285156 9.14228V5.58203H263.587V9.14228C263.587 11.1668 262.783 13.1084 261.351 14.54C259.92 15.9716 257.978 16.7758 255.953 16.7758Z" fill="#774C4A"/>
</svg>
