%YAML 1.1
%TAG !u! tag:unity3d.com,2011:
--- !u!1045 &1
EditorBuildSettings:
  m_ObjectHideFlags: 0
  serializedVersion: 2
  m_Scenes:
  - enabled: 0
    path: Assets/Scenes/OnBoarding/LoginOrSignup/LoginSignup.unity
    guid: ea77f0e162847e04181add934c99dbab
  - enabled: 0
    path: Assets/Scenes/OnBoarding/Splash/SplashScreen.unity
    guid: 73970dceb9bb44a4299fb2081c432a42
  - enabled: 0
    path: Assets/Scenes/OnBoarding/Login/LoginScene.unity
    guid: f8145f1479eb3774d963d5594372da1e
  - enabled: 0
    path: Assets/Scenes/OnBoarding/SignupNameAge/SignupNameAgeScene.unity
    guid: d5ad929310248db48be3cc4ae369dc6f
  - enabled: 0
    path: Assets/Scenes/Home/Home Scene/HomeScene.unity
    guid: 08fca6deb65f67c49a2f8ebec5c59d9c
  - enabled: 0
    path: Assets/Scenes/Home/Watch History/WatchHistory.unity
    guid: ec036062422ef284db3f724d878438c6
  - enabled: 0
    path: Assets/Scenes/Home/Kids Library/KidsLibrary.unity
    guid: 5fc3c11496a49e44a9e4bd11de83ab41
  - enabled: 0
    path: Assets/Scenes/Test/SpriteTest.unity
    guid: 2480ef76857cf204b900637ba62dc17d
  - enabled: 1
    path: Assets/Scenes/Test/Flower Slection.unity
    guid: b20dc7b771160fb4c9d775052d66e401
  m_configObjects: {}
